Chapter 9 Sampling Distributions | Introduction to Statistics and Data Science
…
Using a computer, not only will we be able to repeat the hands-on activity a very large number of times, but it will also allow us to use shovels with different numbers of slots than just 50. The purpose of these simulations is to develop an understanding of two key concepts relating to repeated sampling: understanding the concept of sampling variation and the role that sample size plays in this variation.

9.3 Computer simulation

In the previous Section 9.2, we began imagining other realities and the other possible samples we could have gotten other than our own. To do so, we read about an activity in which a physical bowl of balls and a physical shovel were used by 33 members of a statistics class. We began with this approach so that we could develop a firm understanding of the root ideas behind the theory of repeated sampling.

In this section, we’ll extend this activity to include 10,000 other realities and possible samples using a computer. We focus on 10,000 hypothetical samples since it is enough to get a strong understanding of the properties of an estimator, while remaining computationally simple to implement.

9.3.1 Using the virtual shovel once

Let’s start by performing the virtual analogue of the tactile sampling simulation we performed in 9.2. We first need a virtual analogue of the bowl seen in Figure 9.1. To this end, we included a data frame bowl in the moderndive package whose rows correspond exactly with the contents of the actual bowl.

bowl

# A tibble: 2,400 x 2
   ball_ID color
     <int> <chr>
 1       1 white
 2       2 white
 3       3 white
 4       4 red  
 5       5 white
 6       6 white
 7       7 red  
 8       8 white
 9       9 red  
10      10 white
# … with 2,390 more rows
…
1

1485

white

The ball_ID variable identifies which of the balls from bowl are included in our sample of 50 balls and color denotes its color. However what does the replicate variable indicate? In virtual_shovel’s case, replicate is equal to 1 for all 50 rows. This is telling us that these 50 rows correspond to a first repeated/replicated use of the shovel, in our case our first sample. We’ll see below when we “virtually” take 10,000 samples, replicate will take values between 1 and 10,000. Before we do this, let’s compute the proportion of balls in our virtual sample of size 50 that are red using the dplyr data wrangling verbs you learned in Chapter 3. Let’s breakdown the steps individually:

First, for each of our 50 sampled balls, identify if it is red using a test for equality using ==. For every row where color == "red", the Boolean TRUE is returned and for every row where color is not equal to "red", the Boolean FALSE is returned. Let’s create a new Boolean variable is_red using the mutate() function from Section 3.5:

virtual_shovel %>% 
  mutate(is_red = (color == "red"))

# A tibble: 50 x 4
# Groups:   replicate [1]
   replicate ball_ID color is_red
       <int>   <int> <chr> <lgl> 
 1         1    1970 white FALSE 
 2         1     842 red   TRUE  
 3         1    2287 white FALSE 
 4         1     599 white FALSE 
 5         1     108 white FALSE 
 6         1     846 red   TRUE  
 7         1     390 red   TRUE  
 8         1     344 white FALSE 
 9         1     910 white FALSE 
10         1    1485 white FALSE 
# … with 40 more rows
…
