Chapter 10 Confidence Intervals | Statistical Inference via Data Science
…
At the end of this bootstrap procedure, you are able to see:

An estimate of the sampling distribution

A bootstrap estimate of the standard error

In cases in which there are also mathematical formulas available, bootstrap results should be very similar to those based off the formulas. When they are very different, however, this suggests that some of the assumptions used to develop the mathematical results might have been violated in the data.

10.2.1 Bootstrapping Example

Suppose we are interested in understanding some properties of the mean age of all US pennies from this data collected in 2011. How might we go about that? The moderndive package contains a sample of 40 pennies collected and minted in the United States. Let’s explore this sample data first:

pennies_sample

# A tibble: 40 x 2
    year age_in_2011
   <int>       <int>
 1  1997          14
 2  2006           5
 3  1997          14
 4  2000          11
 5  2000          11
 6  2007           4
 7  1986          25
 8  1980          31
 9  1992          19
10  1993          18
# … with 30 more rows
…
Our point estimate is, thus, \(\bar{x} = 16.5\). Note that this is just one sample, though, providing just one guess at the population mean. What if we’d like to have another guess?

This should all sound similar to what we did in Chapter 9. There instead of collecting just a single scoop of balls we had many different students use the shovel to scoop different samples of red and white balls. We then calculated a sample statistic (the sample proportion) from each sample. But, we don’t have a population to pull from here with the pennies. We only have this one sample.

The process of bootstrapping allows us to use a single sample to generate many different samples that will act as our way of approximating a sampling distribution using a created bootstrap distribution instead.

10.2.2 The Bootstrapping Process

Remember that bootstrapping uses a process of random sampling with replacement from our original sample to create new bootstrap samples of the same size as our original sample. We can again make use of the rep_sample_n() function to explore what one such bootstrap sample would look like.

bootstrap_sample1 <- pennies_sample %>% 
  rep_sample_n(size = 40, replace = TRUE, reps = 1)
bootstrap_sample1

# A tibble: 40 x 3
# Groups:   replicate [1]
   replicate  year age_in_2011
       <int> <int>       <int>
 1         1  1996          15
 2         1  2000          11
 3         1  1985          26
 4         1  1977          34
 5         1  1986          25
 6         1  1977          34
 7         1  1985          26
 8         1  2007           4
 9         1  1971          40
10         1  1985          26
# … with 30 more rows
…
The specify() function is used primarily to choose which variables will be the focus of the statistical inference. In addition, a setting of which variable will act as the explanatory and which acts as the response variable is done here. For proportion problems similar to those in Chapter 9, we can also give which of the different levels we would like to have as a success. We’ll see further examples of these options in this chapter, Chapter ??, and in Appendix B.

To begin to create a bootstrap sampling distribution for the population mean age of US pennies in 2011, we start by using specify() to choose which variable in our pennies_sample data we’d like to work with. This can be done in one of two ways:

Using the response argument:

pennies_sample %>% 
  specify(response = age_in_2011)

Response: age_in_2011 (integer)
# A tibble: 40 x 1
   age_in_2011
         <int>
 1          14
 2           5
 3          14
 4          11
 5          11
 6           4
 7          25
 8          31
 9          19
10          18
# … with 30 more rows

Using formula notation:

pennies_sample %>% 
  specify(formula = age_in_2011 ~ NULL)

Response: age_in_2011 (integer)
# A tibble: 40 x 1
   age_in_2011
         <int>
 1          14
 2           5
 3          14
 4          11
 5          11
 6           4
 7          25
 8          31
 9          19
10          18
# … with 30 more rows
…
Let’s generate() 1000 bootstrap samples:

thousand_bootstrap_samples <- pennies_sample %>% 
  specify(response = age_in_2011) %>% 
  generate(reps = 1000)

Setting `type = "bootstrap"` in `generate()`.

We can use the dplyr count() function to help us understand what the thousand_bootstrap_samples data frame looks like:

thousand_bootstrap_samples %>% 
  count(replicate)

# A tibble: 1,000 x 2
# Groups:   replicate [1,000]
   replicate     n
       <int> <int>
 1         1    40
 2         2    40
 3         3    40
 4         4    40
 5         5    40
 6         6    40
 7         7    40
 8         8    40
 9         9    40
10        10    40
# … with 990 more rows
…
After generate()ing many different samples, we next want to condense those samples down into a single statistic for each replicated sample. As seen in the diagram, the calculate() function is helpful here.

As we did at the beginning of this chapter, we now want to calculate the mean age_in_2011 for each bootstrap sample. To do so, we use the stat argument and set it to "mean" below. The stat argument has a variety of different options here and we will see further examples of this throughout the remaining chapters.

bootstrap_distribution <- pennies_sample %>% 
  specify(response = age_in_2011) %>% 
  generate(reps = 1000) %>% 
  calculate(stat = "mean")

Setting `type = "bootstrap"` in `generate()`.

bootstrap_distribution

# A tibble: 1,000 x 2
   replicate  stat
       <int> <dbl>
 1         1  15.6
 2         2  17.4
 3         3  18.1
 4         4  17.8
 5         5  19.6
 6         6  15  
 7         7  18.2
 8         8  18.6
 9         9  20.1
10        10  17.4
# … with 990 more rows
…
FIGURE 10.5: Confidence Interval for Average Age from 100 repeated samples of size 100

10.7 Example: One proportion

Let’s revisit our exercise of trying to estimate the proportion of red balls in the bowl from Chapter 9. We are now interested in determining a confidence interval for population parameter \(\pi\), the proportion of balls that are red out of the total \(N = 2400\) red and white balls.

We will use the first sample reported from Ilyas and Yohan in Subsection 9.2.3 for our point estimate. They observed 21 red balls out of the 50 in their shovel. This data is stored in the tactile_shovel1 data frame in the moderndive package.

tactile_shovel1

# A tibble: 50 x 1
   color
   <chr>
 1 white
 2 red  
 3 red  
 4 red  
 5 red  
 6 red  
 7 red  
 8 white
 9 red  
10 white
# … with 40 more rows
…
We are 95% confident that the true proportion of red balls in the bowl is between 0.284 and 0.556. This level of confidence is based on the standard error-based method including the true proportion 95% of the time if many different samples (not just the one we used) were collected and confidence intervals were created.

10.8 Example: Comparing two proportions

If you see someone else yawn, are you more likely to yawn? In an episode of the show Mythbusters, they tested the myth that yawning is contagious. The snippet from the show is available to view in the United States on the Discovery Network website here. More information about the episode is also available on IMDb here.

Fifty adults who thought they were being considered for an appearance on the show were interviewed by a show recruiter (“confederate”) who either yawned or did not. Participants then sat by themselves in a large van and were asked to wait. While in the van, the Mythbusters watched via hidden camera to see if the unaware participants yawned. The data frame containing the results is available at mythbusters_yawn in the moderndive package. Let’s check it out.

mythbusters_yawn

# A tibble: 50 x 3
    subj group   yawn 
   <int> <chr>   <chr>
 1     1 seed    yes  
 2     2 control yes  
 3     3 seed    no   
 4     4 seed    yes  
 5     5 seed    no   
 6     6 control no   
 7     7 seed    yes  
 8     8 control no   
 9     9 control no   
10    10 seed    no   
# … with 40 more rows
…
10.8.1 Compute the point estimate

mythbusters_yawn %>% 
  specify(formula = yawn ~ group)

Error: A level of the response variable `yawn` needs to be specified for the `success` argument in `specify()`.

Note that the success argument must be specified in situations such as this where the response variable has only two levels.

mythbusters_yawn %>% 
  specify(formula = yawn ~ group, success = "yes")

Response: yawn (factor)
Explanatory: group (factor)
# A tibble: 50 x 2
   yawn  group  
   <fct> <fct>  
 1 yes   seed   
 2 yes   control
 3 no    seed   
 4 yes   seed   
 5 no    seed   
 6 no    control
 7 yes   seed   
 8 no    control
 9 no    control
10 no    seed   
# … with 40 more rows
…
