Chapter 11 P-values | Statistical Inference via Data Science
…
In these cases, this standardization is conducted using the following formula:

\[t\_stat = \frac{Estimate - Null \ \ value}{SE(Estimate)}\]

This t-statistic is then used to determine the sampling distribution under the null hypothesis and the p-value based upon the observed value. There are two approaches one can use here: based on mathematical theory or based upon simulation (bootstrap).

11.3 P-value and Null Distribution Example

11.3.1 IMDB data

The movies dataset in the ggplot2movies package contains information on 58,788 movies that have been rated by users of IMDB.com.

movies

# A tibble: 58,788 x 24
   title  year length budget rating votes    r1    r2    r3    r4    r5    r6
   <chr> <int>  <int>  <int>  <dbl> <int> <dbl> <dbl> <dbl> <dbl> <dbl> <dbl>
 1 $      1971    121     NA    6.4   348   4.5   4.5   4.5   4.5  14.5  24.5
 2 $100…  1939     71     NA    6      20   0    14.5   4.5  24.5  14.5  14.5
 3 $21 …  1941      7     NA    8.2     5   0     0     0     0     0    24.5
 4 $40,…  1996     70     NA    8.2     6  14.5   0     0     0     0     0  
 5 $50,…  1975     71     NA    3.4    17  24.5   4.5   0    14.5  14.5   4.5
 6 $pent  2000     91     NA    4.3    45   4.5   4.5   4.5  14.5  14.5  14.5
 7 $win…  2002     93     NA    5.3   200   4.5   0     4.5   4.5  24.5  24.5
 8 '15'   2002     25     NA    6.7    24   4.5   4.5   4.5   4.5   4.5  14.5
 9 '38    1987     97     NA    6.6    18   4.5   4.5   4.5   0     0     0  
10 '49-…  1917     61     NA    6      51   4.5   0     4.5   4.5   4.5  44.5
# … with 58,778 more rows, and 12 more variables: r7 <dbl>, r8 <dbl>, r9 <dbl>,
#   r10 <dbl>, mpaa <chr>, Action <int>, Animation <int>, Comedy <int>,
#   Drama <int>, Documentary <int>, Romance <int>, Short <int>

We’ll focus on a random sample of 68 movies that are classified as either “action” or “romance” movies but not both. We disregard movies that are classified as both so that we can assign all 68 movies into either category. Furthermore, since the original movies dataset was a little messy, we provided a pre-wrangled version of our data in the movies_sample data frame included in the moderndive package (you can look at the code to do this data wrangling here):

movies_sample

# A tibble: 68 x 4
   title                     year rating genre  
   <chr>                    <int>  <dbl> <chr>  
 1 Underworld                1985    3.1 Action 
 2 Love Affair               1932    6.3 Romance
 3 Junglee                   1961    6.8 Romance
 4 Eversmile, New Jersey     1989    5   Romance
 5 Search and Destroy        1979    4   Action 
 6 Secreto de Romelia, El    1988    4.9 Romance
 7 Amants du Pont-Neuf, Les  1991    7.4 Romance
 8 Illicit Dreams            1995    3.5 Action 
 9 Kabhi Kabhie              1976    7.7 Romance
10 Electric Horseman, The    1979    5.8 Romance
# … with 58 more rows
…
Furthermore, we’ll use a pre-specified significance level \(\alpha\) = 0.05 for this hypothesis test. Let’s leave the justification of this choice of \(\alpha\) until later on in Section ??.

infer package workflow

1. specify variables

Recall that we use the specify()  verb to denote the response and, if needed, explanatory variables for our study. In this case, since we are interested in any potential effects of genre on IMDB rating, we set rating as the response variable and genre as the explanatory variable using the formula argument using the notation <response> ~ <explanatory> where <response> is the name of the response variable in the data frame and <explanatory> is the name of the explanatory variable. So in our case it is rating ~ genre.

movies_sample %>% 
  specify(formula = rating ~ genre)

Response: rating (numeric)
Explanatory: genre (factor)
# A tibble: 68 x 2
   rating genre  
    <dbl> <fct>  
 1    3.1 Action 
 2    6.3 Romance
 3    6.8 Romance
 4    5   Romance
 5    4   Action 
 6    4.9 Romance
 7    7.4 Romance
 8    3.5 Action 
 9    7.7 Romance
10    5.8 Romance
# … with 58 more rows
…
2. hypothesize the null

In order to compute p-values using the infer workflow, we need a new step:  hypothesize(). Recall that we are starting out with the hypothesis that there is no difference in average ratings between genres. We specify this in our infer workflow by setting the null argument of the hypothesize() function to either:

"point" for hypotheses involving a single group/sample or

"independence" for hypotheses involving two groups/samples

In our case, since we have two groups (the “Romance” and “Action” genres), we set null = "independence".

movies_sample %>% 
  specify(formula = rating ~ genre) %>% 
  hypothesize(null = "independence")

# A tibble: 68 x 2
   rating genre  
    <dbl> <fct>  
 1    3.1 Action 
 2    6.3 Romance
 3    6.8 Romance
 4    5   Romance
 5    4   Action 
 6    4.9 Romance
 7    7.4 Romance
 8    3.5 Action 
 9    7.7 Romance
10    5.8 Romance
# … with 58 more rows
…
4. calculate summary statistics

Now that we have 1000 replicated “shuffles” assuming the null hypothesis that both “Romance” and “Action” movies have the same ratings on average, let’s calculate()  the appropriate summary statistic for each of our 1000 shuffles.

For each of our 1000 shuffles, we can calculate the difference in means by setting stat = "diff in means". Let’s save the result in a data frame called null_distribution:

set.seed(2018)
null_distribution <- movies_sample %>% 
  specify(formula = rating ~ genre) %>% 
  hypothesize(null = "independence") %>% 
  generate(reps = 1000, type = "permute") %>% 
  calculate(stat = "diff in means", order = c("Romance", "Action"))
null_distribution

# A tibble: 1,000 x 2
   replicate    stat
       <int>   <dbl>
 1         1 -0.783 
 2         2 -0.0389
 3         3 -0.110 
 4         4 -0.0979
 5         5  0.575 
 6         6  0.203 
 7         7  0.280 
 8         8 -0.7   
 9         9  0.298 
10        10  0.233 
# … with 990 more rows
…
