Chapter 6 Sampling Distributions | Statistical Inference via Data Science
…
So while in Section 6.2 we performed a “tactile” simulation of sampling using an actual bowl and an actual shovel with our hands, in this section we’ll perform a “virtual” simulation using a “virtual” bowl and a “virtual” shovel with our computers.

6.3.1 Using the virtual shovel once

Let’s start by performing the virtual analogue of the tactile sampling simulation we performed in 6.2. We first need a virtual analogue of the bowl seen in Figure 6.2. To this end, we included a data frame bowl in the moderndive package whose rows correspond exactly with the contents of the actual bowl.

bowl

## # A tibble: 2,400 x 2
##    ball_ID color
##      <int> <chr>
##  1       1 white
##  2       2 white
##  3       3 white
##  4       4 red  
##  5       5 white
##  6       6 white
##  7       7 red  
##  8       8 white
##  9       9 red  
## 10      10 white
## # … with 2,390 more rows
…
1

338

white

The ball_ID variable identifies which of the balls from bowl are included in our sample of 50 balls and color denotes its color. However what does the replicate variable indicate? In virtual_shovel’s case, replicate is equal to 1 for all 50 rows. This is telling us that these 50 rows correspond to a first repeated/replicated use of the shovel, in our case our first sample. We’ll see below when we “virtually” take 33 samples, replicate will take values between 1 and 33. Before we do this, let’s compute the proportion of balls in our virtual sample of size 50 that are red using the dplyr data wrangling verbs you learned in Chapter 3. Let’s breakdown the steps individually:

First, for each of our 50 sampled balls, identify if it is red using a test for equality using ==. For every row where color == "red", the Boolean TRUE is returned and for every row where color is not equal to "red", the Boolean FALSE is returned. Let’s create a new Boolean variable is_red using the mutate() function from Section 3.5:

virtual_shovel %>% 
  mutate(is_red = (color == "red"))

## # A tibble: 50 x 4
## # Groups:   replicate [1]
##    replicate ball_ID color is_red
##        <int>   <int> <chr> <lgl> 
##  1         1    1422 white FALSE 
##  2         1     828 white FALSE 
##  3         1     234 red   TRUE  
##  4         1    1038 red   TRUE  
##  5         1     598 white FALSE 
##  6         1    1254 white FALSE 
##  7         1    1354 red   TRUE  
##  8         1    1430 red   TRUE  
##  9         1     572 white FALSE 
## 10         1     338 white FALSE 
## # … with 40 more rows
…
