Chapter 7 Confidence Intervals | Statistical Inference via Data Science
…
FIGURE 7.3: 50 US pennies labelled.

The moderndive  package contains this data on our 50 sampled pennies. Let’s explore this sample data first:

pennies_sample

## # A tibble: 50 x 2
##       ID  year
##    <int> <dbl>
##  1     1  2002
##  2     2  1986
##  3     3  2017
##  4     4  1988
##  5     5  2008
##  6     6  1983
##  7     7  2008
##  8     8  1996
##  9     9  2004
## 10    10  2000
## # … with 40 more rows
…
FIGURE 7.12: Snapshot of shared spreadsheet of resampled pennies.

For your convenience, we’ve taken these 35 \(\times\) 50 = 1750 values and saved them in virtual_resamples, a “tidy” data frame included in the moderndive package:

pennies_resamples

## # A tibble: 1,750 x 3
##    replicate name   year
##        <int> <chr> <dbl>
##  1         1 A      1988
##  2         1 A      2002
##  3         1 A      2015
##  4         1 A      1998
##  5         1 A      1979
##  6         1 A      1971
##  7         1 A      1971
##  8         1 A      2015
##  9         1 A      1988
## 10         1 A      1979
## # … with 1,740 more rows

What did each of our 35 friends obtain as the mean year? dplyr to the rescue once more! After grouping the rows by name, we summarize each group of rows with their mean year:

resampled_means <- pennies_resamples %>% 
  group_by(name) %>% 
  summarize(mean_year = mean(year))
resampled_means

## # A tibble: 35 x 2
##    name  mean_year
##    <chr>     <dbl>
##  1 A         1992.
##  2 AA        1996.
##  3 B         1996.
##  4 BB        1992.
##  5 C         1996.
##  6 CC        1996.
##  7 D         1997.
##  8 DD        1997.
##  9 E         1991.
## 10 EE        1998.
## # … with 25 more rows
…
As when we did our tactile resampling, the resulting mean year is different than that mean year of our 50 originally sampled pennies of 1995.44.

7.3.2 Virtually resampling 35 times

Let’s now have 35 virtual friends perform our virtual resampling exercise. Using these results, we’ll be able to study the variability in the sample means from 35 resamples of size 50. Let’s first add a reps = 35 argument to rep_sample_n()  to indicate we would like 35 replicates, or in other words, repeat the resampling with the replacement of 50 pennies 35 times.

virtual_resamples <- pennies_sample %>% 
  rep_sample_n(size = 50, replace = TRUE, reps = 35)
virtual_resamples

## # A tibble: 1,750 x 3
## # Groups:   replicate [35]
##    replicate    ID  year
##        <int> <int> <dbl>
##  1         1    35  1985
##  2         1    43  2018
##  3         1    41  1992
##  4         1     4  1988
##  5         1    27  1993
##  6         1    24  2017
##  7         1    23  1998
##  8         1    37  1962
##  9         1    18  1996
## 10         1    42  1997
## # … with 1,740 more rows

The resulting virtual_resamples data frame has 35 \(\times\) 50 = 1750 rows corresponding to 35 resamples of 50 pennies. What did each of our 35 virtual friends obtain as the mean year? We’ll use the same dplyr verbs as we did in the previous section, but computing the mean for each of our virtual friends separately by adding a group_by(replicate):

virtual_resampled_means <- virtual_resamples %>% 
  group_by(replicate) %>% 
  summarize(mean_year = mean(year))
virtual_resampled_means

## # A tibble: 35 x 2
##    replicate mean_year
##        <int>     <dbl>
##  1         1     1991.
##  2         2     1996.
##  3         3     1996.
##  4         4     1997.
##  5         5     1995.
##  6         6     1997.
##  7         7     1996.
##  8         8     2000.
##  9         9     1995.
## 10        10     1994.
## # … with 25 more rows
…
However, in the interest of brevity, going forward let’s combine the above two operations into a single chain of %>% pipe operators:

virtual_resampled_means <- pennies_sample %>% 
  rep_sample_n(size = 50, replace = TRUE, reps = 1000) %>% 
  group_by(replicate) %>% 
  summarize(mean_year = mean(year))
virtual_resampled_means

## # A tibble: 1,000 x 2
##    replicate mean_year
##        <int>     <dbl>
##  1         1     1993.
##  2         2     1994.
##  3         3     1993.
##  4         4     1998.
##  5         5     1997.
##  6         6     1991.
##  7         7     1999.
##  8         8     1999.
##  9         9     1995.
## 10        10     1995.
## # … with 990 more rows
…
